{
  "name": "Food Safety Messenger API",
  "version": "1.0.0",
  "description": "Food Safety Messenger API Documentation",
  "title": "Food Safety Messenger API",
  "url": "http://foodsafetymessenger.com/api/v1/",
  "sampleUrl": false,
  "apidoc": "0.2.0",
  "generator": {
    "name": "apidoc",
    "time": "2016-03-17T09:28:17.937Z",
    "url": "http://apidocjs.com",
    "version": "0.15.1"
  }
}
